"Product Code","Category Name","Product Name","Product Unit","Product Cost","Product Qty","Alert Qty"
001,"small bun",bun,GRAM,10,99,50
003,vegetables,Potato,KG,50,-162,10
004,vegetables,ginger,KG,20,150,10
005,vegetables,Spicies,KG,50,185,20
007,Fruits,Banana,Dozen,50,42.5,1
008,Fruits,Mango,KG,50,40,5
009,Fruits,Dates,KG,100,36,1
